…
``` r
city_or_df =
  city_df |>
  arrange(desc(or)) |>
  mutate(city_state = factor(city_state, levels = city_state))

city_or_df
```

    ## # A tibble: 47 × 4
    ## # Groups:   city_state [47]
    ##    city_state           or conf.low conf.high
    ##    <fct>             <dbl>    <dbl>     <dbl>
    ##  1 Minneapolis, MN   1.08     0.533     2.14 
    ##  2 Stockton, CA      1.05     0.480     2.33 
    ##  3 Fresno, CA        1.01     0.392     2.43 
    ##  4 Oklahoma City, OK 0.909    0.578     1.42 
    ##  5 Birmingham, AL    0.707    0.446     1.10 
    ##  6 Tulsa, OK         0.703    0.392     1.21 
    ##  7 Boston, MA        0.672    0.352     1.27 
    ##  8 Los Angeles, CA   0.662    0.457     0.954
    ##  9 Nashville, TN     0.658    0.401     1.05 
    ## 10 San Francisco, CA 0.608    0.312     1.16 
    ## # ℹ 37 more rows
…
